<?xml version="1.0" encoding="utf-8"?>
<!-- Generator: Adobe Illustrator 23.0.4, SVG Export Plug-In . SVG Version: 6.00 Build 0)  -->
<svg version="1.1" id="Layer_1" xmlns="http://www.w3.org/2000/svg" xmlns:xlink="http://www.w3.org/1999/xlink" x="0px" y="0px"
     viewBox="0 0 29.6 23.22" style="enable-background:new 0 0 29.6 23.22;" xml:space="preserve">
<g>
	<path d="M17.71,15.09c-0.24,0-0.47-0.15-0.56-0.39l0,0c-0.04-0.1-1.01-2.5-3.95-2.5c-2.97,0-3.94,2.47-3.95,2.49
		c-0.12,0.31-0.47,0.47-0.78,0.35C8.16,14.93,8,14.58,8.12,14.27C8.17,14.14,9.41,11,13.2,11c3.79,0,5.03,3.14,5.08,3.27
		c0.12,0.31-0.04,0.66-0.35,0.78C17.86,15.08,17.78,15.09,17.71,15.09z"/>
    <path d="M21.8,11.67c-0.23,0-0.46-0.14-0.56-0.36c-0.08-0.18-2.04-4.51-8.05-4.51c-6.02,0-7.97,4.33-8.05,4.51
		c-0.13,0.3-0.49,0.44-0.79,0.31c-0.31-0.13-0.45-0.49-0.32-0.79c0.09-0.21,2.33-5.24,9.16-5.24c6.83,0,9.07,5.03,9.16,5.24
		c0.13,0.31-0.01,0.66-0.32,0.79C21.96,11.65,21.88,11.67,21.8,11.67z"/>
    <path d="M0.6,8.63c-0.08,0-0.15-0.02-0.23-0.05C0.07,8.46-0.08,8.1,0.05,7.79C0.08,7.72,3.37,0,13.2,0s13.12,7.72,13.15,7.79
		c0.13,0.31-0.02,0.66-0.33,0.79c-0.31,0.13-0.66-0.02-0.79-0.33c-0.12-0.29-3.04-7.05-12.04-7.05c-9.03,0-12.01,6.98-12.04,7.05
		C1.07,8.49,0.84,8.63,0.6,8.63z"/>
    <path d="M13.2,23.22c-1.79,0-3.25-1.46-3.25-3.25s1.46-3.25,3.25-3.25s3.25,1.46,3.25,3.25S14.99,23.22,13.2,23.22z M13.2,17.92
		c-1.13,0-2.04,0.92-2.04,2.04s0.92,2.04,2.04,2.04s2.04-0.92,2.04-2.04S14.32,17.92,13.2,17.92z"/>
    <path d="M17.96,18.8c-0.15,0-0.3-0.06-0.42-0.17c-0.24-0.23-0.25-0.62-0.01-0.85l6.83-7.06l-8.16,5.71
		c-0.27,0.19-0.65,0.12-0.84-0.15c-0.19-0.27-0.12-0.65,0.15-0.84l13.32-9.32l0.78,0.92L18.39,18.62
		C18.27,18.74,18.11,18.8,17.96,18.8z"/>
</g>
</svg>
