<?xml version="1.0" encoding="utf-8"?>
<!-- Generator: Adobe Illustrator 23.0.4, SVG Export Plug-In . SVG Version: 6.00 Build 0)  -->
<svg version="1.1" id="Layer_1" xmlns="http://www.w3.org/2000/svg" xmlns:xlink="http://www.w3.org/1999/xlink" x="0px" y="0px"
     viewBox="0 0 26.31 22.86" style="enable-background:new 0 0 26.31 22.86;" xml:space="preserve">
<g>
	<path d="M13.07,7.81c-1.36,0-2.46-1.1-2.46-2.46s1.1-2.46,2.46-2.46c0.62,0,1.21,0.23,1.66,0.65c0.51,0.47,0.8,1.13,0.8,1.81
		C15.53,6.7,14.43,7.81,13.07,7.81z M13.07,4.09c-0.69,0-1.25,0.56-1.25,1.25s0.56,1.25,1.25,1.25c0.69,0,1.25-0.56,1.25-1.25
		c0-0.36-0.14-0.68-0.41-0.92C13.69,4.21,13.39,4.09,13.07,4.09z"/>
    <path d="M26.31,22.86H0L2.58,5.27h4.04c0.33,0,0.6,0.27,0.6,0.6s-0.27,0.6-0.6,0.6h-3L1.4,21.65h23.52l-2.1-15.17h-2.91
		c-0.33,0-0.6-0.27-0.6-0.6s0.27-0.6,0.6-0.6h3.96L26.31,22.86z"/>
    <path d="M13.19,16.11l-0.47-0.6c-0.19-0.24-4.58-5.86-4.58-9.55c0-2.18,0.6-3.8,1.79-4.82c1.15-0.99,2.57-1.13,3.27-1.13
		c0.76,0.01,2.12,0.14,3.27,1.13c1.19,1.02,1.79,2.65,1.79,4.82c0,3.69-4.4,9.31-4.58,9.55L13.19,16.11z M12.72,1.23
		c-0.58,0.06-1.36,0.25-2.01,0.82c-0.9,0.79-1.36,2.1-1.36,3.9c0,2.61,2.73,6.63,3.85,8.17c1.12-1.54,3.85-5.56,3.85-8.17
		c0-1.8-0.46-3.12-1.36-3.9c-0.65-0.57-1.43-0.76-2.01-0.82c-0.04,0-0.08,0-0.13-0.01c0,0-0.13-0.02-0.34-0.02
		c-0.22,0-0.36,0.02-0.37,0.02C12.8,1.23,12.76,1.24,12.72,1.23z"/>
    <path d="M22.14,18.46h-2.43c-0.33,0-0.6-0.27-0.6-0.6s0.27-0.6,0.6-0.6h2.43c0.33,0,0.6,0.27,0.6,0.6S22.47,18.46,22.14,18.46z
		 M17.29,18.46h-2.43c-0.33,0-0.6-0.27-0.6-0.6s0.27-0.6,0.6-0.6h2.43c0.33,0,0.6,0.27,0.6,0.6S17.62,18.46,17.29,18.46z
		 M12.43,18.46h-2.43c-0.33,0-0.6-0.27-0.6-0.6s0.27-0.6,0.6-0.6h2.43c0.33,0,0.6,0.27,0.6,0.6S12.77,18.46,12.43,18.46z
		 M7.58,18.46H5.16c-0.33,0-0.6-0.27-0.6-0.6s0.27-0.6,0.6-0.6h2.43c0.33,0,0.6,0.27,0.6,0.6S7.92,18.46,7.58,18.46z"/>
</g>
</svg>
